[
{
"_id": "hld-03",
"name": "Hialid 0.3% Sodium Hyaluronate",
"description": "[Multi-dose], Each mL contains 3 mg of purified sodium hyaluronate. [Single-dose unit] Each bottle (0.4mL) contains 1.2mg of purified sodium hyaluronate.",
"price": 350.00,
"stocks": "50",
"isActive": true,
"SKU": "MED054"
},
{
"_id": "hld-01",
"name": "Hialid 0.1% Sodium Hyaluronate",
"description": "[Multi-dose], Each mL contains 1 mg of purified sodium hyaluronate. [Single-dose unit] Each bottle (0.4 mL) contains 0.4 mg of purified sodium hyaluronate.",
"price": 339.75,
"stocks": "50",
"isActive": true,
"SKU": "MED055"
},
{
"_id": "hybk-015",
"name": "Hyabak 0.15% Sodium Hyaluronate",
"description": "[Multi-dose], Each mL contains 1 mg of purified sodium hyaluronate. [Single-dose unit] Each bottle (0.4 mL) contains 0.15 mg of purified sodium hyaluronate.",
"price": 683.23,
"stocks": "50",
"isActive": true,
"SKU": "MED056"
}
]